{
  "aboutReleasesUrl": "https://github.com/wireapp/wire-desktop/releases",
  "aboutUpdatesUrl": "https://support.wire.com/hc/articles/115001919905",
  "adminUrl": "https://teams.wire.com",
  "appBase": "https://app.wire.com",
  "buildDir": "wrap/build",
  "buildNumber": "0",
  "copyright": "© Wire Swiss GmbH",
  "customProtocolName": "wire",
  "description": "The most secure collaboration platform.",
  "distDir": "wrap/dist",
  "electronDirectory": "electron",
  "enableAsar": true,
  "environment": "internal",
  "legalUrl": "https://wire.com/legal/",
  "licensesUrl": "https://wire.com/legal/licenses/",
  "maximumAccounts": "3",
  "name": "WireInternal",
  "nameShort": "WireInternal",
  "privacyUrl": "https://wire.com/privacy/",
  "supportUrl": "https://support.wire.com",
  "updateUrl": "https://wire-app.wire.com/win/prod/",
  "version": "3.31.0",
  "websiteUrl": "https://wire.com"
}
